{
   "ar": "\u062d\u0644\u0642\u0629 \u0661 : \u062c\u064f\u0631\u0639\u0629\u064f \u0627\u0644\u0637\u064e\u064a\u0631\u0627\u0646",
   "bn": "\u0997\u09b2\u09cd\u09aa \u09e7: \u0993\u09dc\u09be\u09b0 \u09af\u09be\u09a6\u09c1\u09ae\u09bf\u09b6\u09cd\u09b0\u09a3",
   "br": "Rann 1: Dramm nijal",
   "ca": "Episodi 1: La Poci\u00f3 de Vol",
   "cn": "\u7b2c1\u96c6\uff1a\u98de\u884c\u9b54\u836f",
   "cs": "1. d\u00edl: Lektvar l\u00e9t\u00e1n\u00ed",
   "da": "Episode 1: Flyveeliksir",
   "de": "Episode 1: Der Flugtrank",
   "el": "\u0395\u03c0\u03b5\u03b9\u03c3\u03cc\u03b4\u03b9\u03bf 1 : \u03a6\u03af\u03bb\u03c4\u03c1\u03bf \u03b1\u03b9\u03ce\u03c1\u03b7\u03c3\u03b7\u03c2",
   "en": "Episode 1: The Potion of Flight",
   "eo": "\u0108apitro 1a : La Sor\u0109otrinka\u0135o flugiga",
   "es": "Episodio 1: Poci\u00f3n de vuelo",
   "fa": "\u0642\u0633\u0645\u062a \u0627\u0648\u0644: \u0645\u0639\u062c\u0648\u0646 \u067e\u0631\u0648\u0627\u0632",
   "fi": "Episodi 1: Lentoliemi",
   "fr": "\u00c9pisode 1 : Potion d'envol",
   "gd": "Eapasod 1: An deoch-sgiathaidh",
   "go": "Eqerouey 1 : Pocion avolante",
   "he": "\u05e4\u05e8\u05e7 \u05e8\u05d0\u05e9\u05d5\u05df: \u05e9\u05d9\u05e7\u05d5\u05d9 \u05d4\u05ea\u05e2\u05d5\u05e4\u05d4",
   "hi": "\u0905\u0927\u094d\u092f\u093e\u092f \u0967: \u091c\u093e\u0926\u0941\u0908 \u0915\u093e\u0922\u093c\u0947 \u0915\u0940 \u0909\u0921\u093c\u093e\u0928",
   "hu": "1. r\u00e9sz: A Rep\u00fcl\u0151 B\u00e1jital",
   "id": "Episode 1: Ramuan terbang",
   "ie": "Episode 1: Li Potion de Volada",
   "io": "Epizodo 1 : La flugo-pociono",
   "it": "Episodio 1: La pozione per volare",
   "ja": "\u30a8\u30d4\u30bd\u30fc\u30c9 1: \u98db\u884c\u85ac",
   "jb": "i 1 mo'o lisri le litki pe ja'e lo nu vofli",
   "jz": "\udb48\udf03\udb48\udf21\udb48\udf00\udb48\udf94\udb48\udf14\udb48\udf00\udb48\udf63\udb48\udf70\udb48\udff3\udb48\udf00\udb48\udf62\udb48\udf00\udb48\udf63\udb48\udf30\udb48\udf43\udb48\udf00\udb48\udf22\udb48\udf00\udb49\udc11\udb48\udf12\udb48\udf00\udb48\udf64\udb48\udf00\udb49\udc25\udb48\udf00\udb48\udfe4\udb48\udf50\udb48\udf63",
   "kr": "\uc81c1 \ud654: \ube44\ud589\uc758 \ubb3c\uc57d",
   "kt": "Zixa 1 : Uliba ta tictalara",
   "kw": "Rann 1: An Ismegen-Neyja",
   "la": "Episodium 1 : Potio ad evolandum",
   "ml": "\u0d0e\u0d2a\u0d4d\u0d2a\u0d3f\u0d38\u0d4b\u0d21\u0d4d 1 : \u0d2a\u0d31\u0d15\u0d4d\u0d15\u0d3e\u0d28\u0d41\u0d33\u0d4d\u0d33 \u0d2e\u0d28\u0d4d\u0d24\u0d4d\u0d30\u0d02",
   "ms": "Episod 1 : Posyen terbang",
   "mx": "Episodio 1 : Poci\u00f3n de Vuelo",
   "nl": "Aflevering 1: De vliegdrank",
   "nm": "Histou\u00e8re 1 : P\u00e8tiouns d'\u00e9vo",
   "nn": "Episode 1: Flygetrylledrikken",
   "no": "Episode 1: Flyvetrylledrikken",
   "ns": "Folg 1: De Flaagdrunk",
   "ph": "Episode 1 : Salamangka ng Paglipad",
   "pl": "Odcinek 1: Eliksir lotu",
   "pt": "Epis\u00f3dio 1: A Po\u00e7\u00e3o de Voo",
   "ro": "Episodul 1 : Po\u0163iunea Zborului",
   "ru": "\u042d\u043f\u0438\u0437\u043e\u0434 1: \u0417\u0435\u043b\u044c\u0435 \u043f\u043e\u043b\u0435\u0442\u0430",
   "sb": "Episode 1: Pleukpotion",
   "si": "1\u0dc0\u0db1 \u0d9a\u0dad\u0dcf\u0d82\u0d9c\u0dba: \u0d89\u0d9c\u0dd2\u0dbd\u0dd3\u0db8\u0dda \u0db8\u0dcf\u0dba\u0dcf \u0dc0\u0da9\u0dd2\u0dba",
   "sk": "Epiz\u00f3da 1: Elix\u00edr lietania",
   "sl": "Epizoda 1: Napoj letenja",
   "sr": "\u0415\u043f\u0438\u0437\u043e\u0434\u0430 1: \u041d\u0430\u043f\u0438\u0442\u0430\u043a \u0437\u0430 \u043b\u0435\u0442\u0435\u045a\u0435",
   "sv": "Episode 1: Flygelixir",
   "sz": "Tajla 1: Eliksir l\u014ftani\u014f",
   "tp": "lipu nanpa wan: telo pi tawa waso",
   "tr": "1. B\u00f6l\u00fcm: U\u00e7u\u015f \u0130ksiri",
   "uk": "\u0415\u043f\u0456\u0437\u043e\u0434 1: \u0417\u0456\u043b\u043b\u044f \u043f\u043e\u043b\u044c\u043e\u0442\u0443",
   "vi": "T\u1eadp 1: Thu\u1ed1c L\u01a1 L\u1eedng"
}